Chapitre 4 Gbané (2021), masse de l’oeuf | Analyse des données d’essai de nutrition de cailles
…
=> Différences significatives

4.6.0.1 Comparaisons par paires

mc <- (SNK.test(lm, "grp", group = TRUE))$groups %>% 
  mutate(grp = rownames(.)) %>% 
  dplyr::select(grp, egg, groups) %>% 
  as_tibble()
mc

## # A tibble: 21 x 3
##    grp                        egg groups
##    <chr>                    <dbl> <chr> 
##  1 Week 4_0.15%B.o_0.45%C.l  11.6 a     
##  2 Week 5_0.45%B.o_0.15%C.l  11.5 a     
##  3 Week 5_0.6%B.o            11.4 ab    
##  4 Week 3_0.30%B.o_0.30%C.l  11.3 abc   
##  5 Week 3_0.6%B.o            11.2 abc   
##  6 Week 3_0.45%B.o_0.15%C.l  11.1 abc   
##  7 Week 3_0.15%B.o_0.45%C.l  10.9 abcd  
##  8 Week 5_0.15%B.o_0.45%C.l  10.8 abcd  
##  9 Week 4_YC                 10.7 abcde 
## 10 Week 4_0.6%B.o            10.6 bcdef 
## # ... with 11 more rows
…
