Chapitre 5 Gbané (2021), masse de la coquille | Analyse des données d’essai de nutrition de cailles
…
df %>% 
  kruskal_test(shel ~ diet)

## # A tibble: 1 x 6
##   .y.       n statistic    df     p method        
## * <chr> <int>     <dbl> <int> <dbl> <chr>         
## 1 shel     21      6.81     6 0.339 Kruskal-Wallis

=> Même conclusion, pas de différence d’effets significatif entre les régimes à la semaine 4 sur la masse de la coquille.

df %>% 
  dunn_test(shel ~ diet, p.adjust.method = "bonferroni") %>% 
  dplyr::select(group1, group2, p, p.adj, p.adj.signif) #%>% 

## # A tibble: 21 x 5
##    group1            group2                 p p.adj p.adj.signif
##    <chr>             <chr>              <dbl> <dbl> <chr>       
##  1 0.15%B.o_0.45%C.l 0.30%B.o_0.30%C.l 0.0564 1     ns          
##  2 0.15%B.o_0.45%C.l 0.45%B.o_0.15%C.l 0.693  1     ns          
##  3 0.15%B.o_0.45%C.l 0.6%B.o           0.693  1     ns          
##  4 0.15%B.o_0.45%C.l 0.6%C.l           0.895  1     ns          
##  5 0.15%B.o_0.45%C.l WC                0.792  1     ns          
##  6 0.15%B.o_0.45%C.l YC                0.357  1     ns          
##  7 0.30%B.o_0.30%C.l 0.45%B.o_0.15%C.l 0.0213 0.447 ns          
##  8 0.30%B.o_0.30%C.l 0.6%B.o           0.130  1     ns          
##  9 0.30%B.o_0.30%C.l 0.6%C.l           0.0757 1     ns          
## 10 0.30%B.o_0.30%C.l WC                0.100  1     ns          
## # ... with 11 more rows
…
df %>% 
  kruskal_test(shel ~ diet)

## # A tibble: 1 x 6
##   .y.       n statistic    df     p method        
## * <chr> <int>     <dbl> <int> <dbl> <chr>         
## 1 shel     21      3.37     6 0.762 Kruskal-Wallis

=> Même conclusion, pas de différence d’effets significatif entre les régimes à la semaine 5 sur la masse de la coquille.

df %>% 
  dunn_test(shel ~ diet, p.adjust.method = "bonferroni") %>% 
  dplyr::select(group1, group2, p, p.adj, p.adj.signif) #%>% 

## # A tibble: 21 x 5
##    group1            group2                p p.adj p.adj.signif
##    <chr>             <chr>             <dbl> <dbl> <chr>       
##  1 0.15%B.o_0.45%C.l 0.30%B.o_0.30%C.l 0.947     1 ns          
##  2 0.15%B.o_0.45%C.l 0.45%B.o_0.15%C.l 0.621     1 ns          
##  3 0.15%B.o_0.45%C.l 0.6%B.o           0.392     1 ns          
##  4 0.15%B.o_0.45%C.l 0.6%C.l           0.869     1 ns          
##  5 0.15%B.o_0.45%C.l WC                0.410     1 ns          
##  6 0.15%B.o_0.45%C.l YC                0.869     1 ns          
##  7 0.30%B.o_0.30%C.l 0.45%B.o_0.15%C.l 0.576     1 ns          
##  8 0.30%B.o_0.30%C.l 0.6%B.o           0.357     1 ns          
##  9 0.30%B.o_0.30%C.l 0.6%C.l           0.921     1 ns          
## 10 0.30%B.o_0.30%C.l WC                0.449     1 ns          
## # ... with 11 more rows
…
