Chapitre 4 Hémoglobine hgb (g/dL) | Analyse des données d’essai de nutrition de cailles
…
df %>% 
  kruskal_test(plt ~ aa_sex)

## # A tibble: 1 x 6
##   .y.       n statistic    df     p method        
## * <chr> <int>     <dbl> <int> <dbl> <chr>         
## 1 plt      50      10.3     7 0.173 Kruskal-Wallis

=> Ce test prétend qu’il n’y a pas de différence d’effets significative entre les combinaisons Aa-Sex, sur la concentration en platelets.

df %>% 
  dunn_test(plt ~ aa_sex, p.adjust.method = "bonferroni") %>% 
  select(group1, group2, p, p.adj, p.adj.signif) #%>% 

## # A tibble: 28 x 5
##    group1 group2     p p.adj p.adj.signif
##    <chr>  <chr>  <dbl> <dbl> <chr>       
##  1 0_F    0.25_F 0.563     1 ns          
##  2 0_F    0.5_F  0.633     1 ns          
##  3 0_F    0.75_F 0.213     1 ns          
##  4 0_F    0_M    0.311     1 ns          
##  5 0_F    0.25_M 0.437     1 ns          
##  6 0_F    0.5_M  0.523     1 ns          
##  7 0_F    0.75_M 0.157     1 ns          
##  8 0.25_F 0.5_F  0.887     1 ns          
##  9 0.25_F 0.75_F 0.558     1 ns          
## 10 0.25_F 0_M    0.130     1 ns          
## # ... with 18 more rows
…
